Library\Bee\artifacts\movedfrom\Unity.VisualScripting.Core.ref.dll_15518829177300997364.movedfrom
Library\Bee\artifacts\movedfrom\Unity.VisualScripting.Flow.ref.dll_2192924542065166755.movedfrom
Library\Bee\artifacts\movedfrom\UnityEditor.UI.ref.dll_5519394401220875509.movedfrom
Library\Bee\artifacts\movedfrom\UnityEngine.UI.ref.dll_648142665722821984.movedfrom
Library\Bee\artifacts\movedfrom\Unity.VisualScripting.IonicZip.dll_8474432309919639859.movedfrom
Library\Bee\artifacts\movedfrom\Unity.VisualScripting.YamlDotNet.dll_16469632602366489657.movedfrom
Library\Bee\artifacts\movedfrom\Unity.VisualScripting.Antlr3.Runtime.dll_10807806194459624536.movedfrom
Library\Bee\artifacts\movedfrom\UnityEditor.Graphs.dll_6068960375881729804.movedfrom
Library\Bee\artifacts\movedfrom\UnityEditor.CoreModule.dll_7919949952459921114.movedfrom
Library\Bee\artifacts\movedfrom\UnityEditor.DeviceSimulatorModule.dll_3138770797571499015.movedfrom
Library\Bee\artifacts\movedfrom\UnityEditor.dll_3730434766419418011.movedfrom
Library\Bee\artifacts\movedfrom\UnityEditor.GraphViewModule.dll_3739235929769615308.movedfrom
Library\Bee\artifacts\movedfrom\UnityEditor.PackageManagerUIModule.dll_10948704845041145782.movedfrom
Library\Bee\artifacts\movedfrom\UnityEditor.QuickSearchModule.dll_3326919927071160558.movedfrom
Library\Bee\artifacts\movedfrom\UnityEditor.SceneTemplateModule.dll_1412068110208762159.movedfrom
Library\Bee\artifacts\movedfrom\UnityEditor.UIBuilderModule.dll_9830544763483592960.movedfrom
Library\Bee\artifacts\movedfrom\UnityEditor.UIElementsModule.dll_15440660176510622678.movedfrom
Library\Bee\artifacts\movedfrom\UnityEditor.UIElementsSamplesModule.dll_15980959554298008823.movedfrom
Library\Bee\artifacts\movedfrom\UnityEditor.UIServiceModule.dll_13933906090488719642.movedfrom
Library\Bee\artifacts\movedfrom\UnityEditor.UnityConnectModule.dll_15375953773270987408.movedfrom
Library\Bee\artifacts\movedfrom\UnityEngine.AccessibilityModule.dll_5061509479554394316.movedfrom
Library\Bee\artifacts\movedfrom\UnityEngine.AIModule.dll_7996577546487942638.movedfrom
Library\Bee\artifacts\movedfrom\UnityEngine.AndroidJNIModule.dll_6093695144065698476.movedfrom
Library\Bee\artifacts\movedfrom\UnityEngine.AnimationModule.dll_173928914679788658.movedfrom
Library\Bee\artifacts\movedfrom\UnityEngine.ARModule.dll_2912793135377853623.movedfrom
Library\Bee\artifacts\movedfrom\UnityEngine.AssetBundleModule.dll_8220418409505320416.movedfrom
Library\Bee\artifacts\movedfrom\UnityEngine.AudioModule.dll_12801935347362326756.movedfrom
Library\Bee\artifacts\movedfrom\UnityEngine.ClothModule.dll_1770470292589201352.movedfrom
Library\Bee\artifacts\movedfrom\UnityEngine.ClusterInputModule.dll_6124562974778377558.movedfrom
Library\Bee\artifacts\movedfrom\UnityEngine.ClusterRendererModule.dll_3547686256216994187.movedfrom
Library\Bee\artifacts\movedfrom\UnityEngine.CoreModule.dll_10451205295001846277.movedfrom
Library\Bee\artifacts\movedfrom\UnityEngine.CrashReportingModule.dll_7499944201122990781.movedfrom
Library\Bee\artifacts\movedfrom\UnityEngine.DirectorModule.dll_3396360112510757218.movedfrom
Library\Bee\artifacts\movedfrom\UnityEngine.dll_7379554259607873664.movedfrom
Library\Bee\artifacts\movedfrom\UnityEngine.DSPGraphModule.dll_3779554661332368003.movedfrom
Library\Bee\artifacts\movedfrom\UnityEngine.GameCenterModule.dll_9141869145721142173.movedfrom
Library\Bee\artifacts\movedfrom\UnityEngine.GIModule.dll_519556587941410312.movedfrom
Library\Bee\artifacts\movedfrom\UnityEngine.GridModule.dll_7961026885467035644.movedfrom
Library\Bee\artifacts\movedfrom\UnityEngine.HotReloadModule.dll_9489833676257333236.movedfrom
Library\Bee\artifacts\movedfrom\UnityEngine.ImageConversionModule.dll_11325963222202067327.movedfrom
Library\Bee\artifacts\movedfrom\UnityEngine.IMGUIModule.dll_16864076000034421957.movedfrom
Library\Bee\artifacts\movedfrom\UnityEngine.InputLegacyModule.dll_241477062900523985.movedfrom
Library\Bee\artifacts\movedfrom\UnityEngine.InputModule.dll_1738217998508133768.movedfrom
Library\Bee\artifacts\movedfrom\UnityEngine.JSONSerializeModule.dll_11985663322437978454.movedfrom
Library\Bee\artifacts\movedfrom\UnityEngine.LocalizationModule.dll_10613748359437531215.movedfrom
Library\Bee\artifacts\movedfrom\UnityEngine.ParticleSystemModule.dll_13485871648464787019.movedfrom
Library\Bee\artifacts\movedfrom\UnityEngine.PerformanceReportingModule.dll_11770749539632618436.movedfrom
Library\Bee\artifacts\movedfrom\UnityEngine.Physics2DModule.dll_5697013249491692551.movedfrom
Library\Bee\artifacts\movedfrom\UnityEngine.PhysicsModule.dll_17639533010571352117.movedfrom
Library\Bee\artifacts\movedfrom\UnityEngine.ProfilerModule.dll_7019005969440698479.movedfrom
Library\Bee\artifacts\movedfrom\UnityEngine.RuntimeInitializeOnLoadManagerInitializerModule.dll_6325360665101953744.movedfrom
Library\Bee\artifacts\movedfrom\UnityEngine.ScreenCaptureModule.dll_13852314680091227576.movedfrom
Library\Bee\artifacts\movedfrom\UnityEngine.SharedInternalsModule.dll_2395675722651542735.movedfrom
Library\Bee\artifacts\movedfrom\UnityEngine.SpriteMaskModule.dll_7497055345185886487.movedfrom
Library\Bee\artifacts\movedfrom\UnityEngine.SpriteShapeModule.dll_10049211200812066282.movedfrom
Library\Bee\artifacts\movedfrom\UnityEngine.StreamingModule.dll_13186215067247455152.movedfrom
Library\Bee\artifacts\movedfrom\UnityEngine.SubstanceModule.dll_10640296207928469950.movedfrom
Library\Bee\artifacts\movedfrom\UnityEngine.SubsystemsModule.dll_15183968054435871018.movedfrom
Library\Bee\artifacts\movedfrom\UnityEngine.TerrainModule.dll_1086125346180309283.movedfrom
Library\Bee\artifacts\movedfrom\UnityEngine.TerrainPhysicsModule.dll_13520397220238872792.movedfrom
Library\Bee\artifacts\movedfrom\UnityEngine.TextCoreModule.dll_14401701756089194866.movedfrom
Library\Bee\artifacts\movedfrom\UnityEngine.TextRenderingModule.dll_16824534349528151469.movedfrom
Library\Bee\artifacts\movedfrom\UnityEngine.TilemapModule.dll_12542270702450704940.movedfrom
Library\Bee\artifacts\movedfrom\UnityEngine.TLSModule.dll_15211124151267857353.movedfrom
Library\Bee\artifacts\movedfrom\UnityEngine.UIElementsModule.dll_15489756978501367073.movedfrom
Library\Bee\artifacts\movedfrom\UnityEngine.UIElementsNativeModule.dll_16315223829976647640.movedfrom
Library\Bee\artifacts\movedfrom\UnityEngine.UIModule.dll_7668833116278903706.movedfrom
Library\Bee\artifacts\movedfrom\UnityEngine.UmbraModule.dll_3206079662789956695.movedfrom
Library\Bee\artifacts\movedfrom\UnityEngine.UNETModule.dll_2571673864309520254.movedfrom
Library\Bee\artifacts\movedfrom\UnityEngine.UnityAnalyticsModule.dll_15764535596416542791.movedfrom
Library\Bee\artifacts\movedfrom\UnityEngine.UnityConnectModule.dll_14033744809205494587.movedfrom
Library\Bee\artifacts\movedfrom\UnityEngine.UnityCurlModule.dll_3856924743667836511.movedfrom
Library\Bee\artifacts\movedfrom\UnityEngine.UnityTestProtocolModule.dll_11063791763659205197.movedfrom
Library\Bee\artifacts\movedfrom\UnityEngine.UnityWebRequestAssetBundleModule.dll_8406702605625141336.movedfrom
Library\Bee\artifacts\movedfrom\UnityEngine.UnityWebRequestAudioModule.dll_1969883065770567260.movedfrom
Library\Bee\artifacts\movedfrom\UnityEngine.UnityWebRequestModule.dll_12595705269053473790.movedfrom
Library\Bee\artifacts\movedfrom\UnityEngine.UnityWebRequestTextureModule.dll_5260847767683801009.movedfrom
Library\Bee\artifacts\movedfrom\UnityEngine.UnityWebRequestWWWModule.dll_8686760428671016813.movedfrom
Library\Bee\artifacts\movedfrom\UnityEngine.VehiclesModule.dll_12026094274411772157.movedfrom
Library\Bee\artifacts\movedfrom\UnityEngine.VFXModule.dll_6050407161054166326.movedfrom
Library\Bee\artifacts\movedfrom\UnityEngine.VideoModule.dll_15470745195621811337.movedfrom
Library\Bee\artifacts\movedfrom\UnityEngine.VirtualTexturingModule.dll_502158026546710627.movedfrom
Library\Bee\artifacts\movedfrom\UnityEngine.VRModule.dll_13636707927884093714.movedfrom
Library\Bee\artifacts\movedfrom\UnityEngine.WindModule.dll_529453333232664686.movedfrom
Library\Bee\artifacts\movedfrom\UnityEngine.XRModule.dll_17293282299605100144.movedfrom
Library\Bee\artifacts\movedfrom\UnityEditor.WindowsStandalone.Extensions.dll_4365098293287129702.movedfrom